Take-Home Exercise 01 – ISSS608 Jia Peng Tiny World
…
# Check for missing values
any(is.na(heart_attack))

[1] FALSE

4. Exploratory Data Analysis

heart_attack$Heart_Attack_Occurrence <- ifelse(heart_attack$Heart_Attack_Occurrence == "Yes",1,0)

heart_attack

# A tibble: 30,000 × 17
     Age Gender Region Smoking_History Diabetes_History Hypertension_History
   <dbl> <chr>  <chr>  <chr>           <chr>            <chr>               
 1    56 Male   Urban  Yes             No               No                  
 2    69 Male   Urban  No              No               No                  
 3    46 Male   Rural  Yes             No               No                  
 4    32 Female Urban  No              No               No                  
 5    60 Female Rural  No              No               No                  
 6    25 Female Rural  No              No               No                  
 7    78 Male   Urban  No              Yes              Yes                 
 8    38 Female Urban  Yes             No               No                  
 9    56 Male   Rural  No              No               Yes                 
10    75 Male   Urban  No              No               No                  
# ℹ 29,990 more rows
# ℹ 11 more variables: Cholesterol_Level <dbl>, Physical_Activity <chr>,
#   Diet_Quality <chr>, Alcohol_Consumption <chr>, Stress_Levels <dbl>,
#   BMI <dbl>, Heart_Rate <dbl>, Systolic_BP <dbl>, Diastolic_BP <dbl>,
#   Family_History <chr>, Heart_Attack_Occurrence <dbl>
…
